<svg xmlns="http://www.w3.org/2000/svg" width="16.749" height="17.936" viewBox="0 0 16.749 17.936">
  <g id="Group_23" data-name="Group 23" transform="translate(-10.616 -7.968)">
    <path id="Path_37" data-name="Path 37" d="M10.616,8.627l.317,2a51.518,51.518,0,0,1,16.116,0l.317-2A53.533,53.533,0,0,0,10.616,8.627Z" transform="translate(0 0)" fill="#31363e"/>
    <path id="Path_38" data-name="Path 38" d="M25.667,29.632q1.877-.217,3.765-.272.111,3.906.222,7.811,1.015-.029,2.031,0,.111-3.906.223-7.811,1.886.054,3.764.272a46.829,46.829,0,0,0-5.061-7.143A47.159,47.159,0,0,0,25.667,29.632Z" transform="translate(-11.679 -11.268)" fill="#31363e"/>
  </g>
</svg>
