<svg id="icon" xmlns="http://www.w3.org/2000/svg" width="17.811" height="17.811" viewBox="0 0 17.811 17.811">
  <path id="Path_122" data-name="Path 122" d="M84.567,46.625a1.161,1.161,0,0,0,1.161-1.161V40.172a1.161,1.161,0,1,0-2.321,0v5.292A1.161,1.161,0,0,0,84.567,46.625Z" transform="translate(-75.661 -35.389)" fill="#31363e"/>
  <path id="Path_123" data-name="Path 123" d="M84.57,127.807a1.16,1.16,0,1,0,.821.34A1.167,1.167,0,0,0,84.57,127.807Z" transform="translate(-75.664 -115.939)" fill="#31363e"/>
  <path id="Path_124" data-name="Path 124" d="M8.906,0a8.906,8.906,0,1,0,8.905,8.906A8.916,8.916,0,0,0,8.906,0Zm0,16.418a7.513,7.513,0,1,1,7.513-7.513A7.521,7.521,0,0,1,8.906,16.418Z" fill="#31363e"/>
</svg>
