<svg xmlns="http://www.w3.org/2000/svg" width="13.563" height="18.878" viewBox="0 0 13.563 18.878">
  <g id="Group_22" data-name="Group 22" transform="translate(-30.785 -8)">
    <g id="Group_21" data-name="Group 21" transform="translate(30.785 8)">
      <path id="Path_36" data-name="Path 36" d="M37.567,26.877A6.79,6.79,0,0,1,30.785,20.1a4.972,4.972,0,0,1,1.564-3.28c.889-1.041,1.373-1.684,1-2.817A.839.839,0,0,1,34.5,12.973c.048.023,4.808,2.322,3.255,8.38a.839.839,0,0,1-1.626-.417,5.548,5.548,0,0,0-1.054-5.454A5.835,5.835,0,0,1,33.625,17.9,3.531,3.531,0,0,0,32.462,20.1a5.1,5.1,0,1,0,10.208,0c0-1.681-.922-2.936-1.989-4.388A10.908,10.908,0,0,1,38.214,10.6a3.061,3.061,0,0,0-.8,1.793.839.839,0,1,1-1.674-.1c.167-2.67,2.786-4.122,2.9-4.183a.839.839,0,0,1,1.235.827c-.268,2.476.914,4.083,2.164,5.784,1.138,1.549,2.315,3.15,2.315,5.382A6.789,6.789,0,0,1,37.567,26.877Z" transform="translate(-30.785 -8)" fill="#31363e"/>
    </g>
  </g>
</svg>
